#use wml::debian::countries
#include "$(ENGLISHDIR)/blends/blend.defs"

# Note to translators: there is nothing to translate in this file, see the
# blends POT file instead.

# When adding a new blend to this file, ensure that gettext is used for
# the description.
#
# The blend, description and links tags are all mandatory although the body of
# the links tag may be empty if there are no relevant links.

<tr>
<blend "https://blends.debian.org/astro">Debian Astro</blend>
<description><gettext domain="blends">The goal of Debian Astro is to develop a Debian based operating system that fits the requirements of both professional and hobby astronomers. It integrates a large number of software packages covering telescope control, data reduction, presentation and other fields.</gettext></description>
<links>
<metapackages "https://blends.debian.org/astro/tasks">
</links>
</tr>

<tr>
<blend "https://wiki.debian.org/Debichem">DebiChem</blend>
<description><gettext domain="blends">The goal of DebiChem is to make Debian a good platform for chemists in their day-to-day work.</gettext></description>
<links>
<metapackages "https://blends.debian.org/debichem/tasks">
</links>
</tr>

<tr>
<blend "https://wiki.debian.org/Games">Debian Games</blend>
<description><gettext domain="blends">The goal of Debian Games is to provide games in Debian from arcade and adventure to simulation and strategy.</gettext></description>
<links>
<metapackages "https://blends.debian.org/games/tasks">
</links>
</tr>

<tr>
<blend "https://wiki.debian.org/DebianEdu/">Debian Edu</blend>
<description><gettext domain="blends">The goal of Debian Edu is to provide a Debian OS system suitable for educational use and in schools.</gettext></description>
<links>
<metapackages "https://blends.debian.org/edu/tasks">
</links>
</tr>

<tr>
<blend "gis/">Debian GIS</blend>
<description><gettext domain="blends">The goal of Debian GIS is to develop Debian into the best distribution for Geographical Information System applications and users.</gettext></description>
<links>
<metapackages "gis/get/metapackages">
<downloads "gis/get/live">
<derivatives "gis/deriv">
</links>
</tr>

<tr>
<blend "https://www.debian.org/devel/debian-jr/">Debian Junior</blend>
<description><gettext domain="blends">The goal of Debian Junior is to make Debian an OS that children will enjoy using.</gettext></description>
<links>
<metapackages "https://blends.debian.org/junior/tasks">
</links>
</tr>

<tr>
<blend "https://www.debian.org/devel/debian-med/">Debian Med</blend>
<description><gettext domain="blends">The goal of Debian Med is a complete free and open system for all tasks in medical care and research. To achieve this goal Debian Med integrates related free and open source software for medical imaging, bioinformatics, clinic IT infrastructure, and others within the Debian OS.</gettext></description>
<links>
<metapackages "https://blends.debian.org/med/tasks">
</links>
</tr>

<tr>
<blend "https://wiki.debian.org/DebianMultimedia">Debian Multimedia</blend>
<description><gettext domain="blends">The goal of Debian Multimedia is to make Debian a good platform for audio and multimedia work.</gettext></description>
<links>
<metapackages "https://blends.debian.org/multimedia/tasks">
</links>
</tr>

<tr>
<blend "https://wiki.debian.org/DebianScience">Debian Science</blend>
<description><gettext domain="blends">The goal of Debian Science is to provide a better experience when using Debian to researchers and scientists.</gettext></description>
<links>
<metapackages "https://blends.debian.org/science/tasks">
</links>
</tr>

<tr>
<blend "https://wiki.debian.org/FreedomBox">FreedomBox</blend>
<description><gettext domain="blends">The goal of FreedomBox is to develop, design and promote personal servers running free software for private, personal communications. Applications include blogs, wikis, websites, social networks, email, web proxy and a Tor relay on a device that can replace a wireless router so that data stays with the users.</gettext></description>
<links>
<downloads "https://wiki.debian.org/FreedomBox/Download">
</links>
</tr>

<tr>
<blend "hamradio/">Debian Hamradio</blend>
<description><gettext domain="blends">The goal of Debian Hamradio is to support the needs of radio amateurs in Debian by providing logging, data mode and packet mode applications and more.</gettext></description>
<links>
<metapackages "https://blends.debian.org/hamradio/tasks">
</links>
</tr>
