<define-tag pagetitle>DSA-4755-1 openexr</define-tag>
<define-tag report_date>2020-8-29</define-tag>
<define-tag secrefs>CVE-2017-9111 CVE-2017-9113 CVE-2017-9114 CVE-2017-9115 CVE-2020-11758 CVE-2020-11759 CVE-2020-11760 CVE-2020-11761 CVE-2020-11762 CVE-2020-11763 CVE-2020-11764 CVE-2020-11765 CVE-2020-15305 CVE-2020-15306</define-tag>
<define-tag packages>openexr</define-tag>
<define-tag isvulnerable>yes</define-tag>
<define-tag fixed>yes</define-tag>
<define-tag fixed-section>no</define-tag>

#use wml::debian::security



</dl>
