<define-tag pagetitle>DLA-2534-1 sudo</define-tag>
<define-tag report_date>2021-01-26</define-tag>
<define-tag secrefs>CVE-2021-3156</define-tag>
<define-tag packages>sudo</define-tag>
<define-tag isvulnerable>yes</define-tag>
<define-tag fixed>yes</define-tag>
<define-tag fixed-section>no</define-tag>

#use wml::debian::security

