<define-tag pagetitle>DLA-1196-1 optipng</define-tag>
<define-tag report_date>2017-11-30</define-tag>
<define-tag secrefs>CVE-2017-16938 Bug#878839</define-tag>
<define-tag packages>optipng</define-tag>
<define-tag isvulnerable>yes</define-tag>
<define-tag fixed>yes</define-tag>
<define-tag fixed-section>no</define-tag>

#use wml::debian::security

