<define-tag pagetitle>DLA-836-2 munin</define-tag>
<define-tag report_date>2017-3-3</define-tag>
<define-tag secrefs>Bug#856455 Bug#856536</define-tag>
<define-tag packages>munin</define-tag>
<define-tag isvulnerable>yes</define-tag>
<define-tag fixed>yes</define-tag>
<define-tag fixed-section>no</define-tag>

#use wml::debian::security

