<define-tag pagetitle>DLA-1108-1 tomcat7</define-tag>
<define-tag report_date>2017-9-24</define-tag>
<define-tag secrefs>CVE-2017-12616</define-tag>
<define-tag packages>tomcat7</define-tag>
<define-tag isvulnerable>yes</define-tag>
<define-tag fixed>yes</define-tag>
<define-tag fixed-section>no</define-tag>

#use wml::debian::security

