<define-tag pagetitle>DLA-2251-1 rails</define-tag>
<define-tag report_date>2020-06-19</define-tag>
<define-tag secrefs>CVE-2020-8164 CVE-2020-8165</define-tag>
<define-tag packages>rails</define-tag>
<define-tag isvulnerable>yes</define-tag>
<define-tag fixed>yes</define-tag>
<define-tag fixed-section>no</define-tag>

#use wml::debian::security

