<define-tag pagetitle>DLA-2414-1 fastd</define-tag>
<define-tag report_date>2020-10-25</define-tag>
<define-tag secrefs>CVE-2020-27638 Bug#972521</define-tag>
<define-tag packages>fastd</define-tag>
<define-tag isvulnerable>yes</define-tag>
<define-tag fixed>yes</define-tag>
<define-tag fixed-section>no</define-tag>

#use wml::debian::security

