<define-tag pagetitle>DLA-2368-1 grunt</define-tag>
<define-tag report_date>2020-09-09</define-tag>
<define-tag secrefs>CVE-2020-7729</define-tag>
<define-tag packages>grunt</define-tag>
<define-tag isvulnerable>yes</define-tag>
<define-tag fixed>yes</define-tag>
<define-tag fixed-section>no</define-tag>

#use wml::debian::security
