<define-tag pagetitle>DLA-2435-1 guacamole-server</define-tag>
<define-tag report_date>2020-11-6</define-tag>
<define-tag secrefs>CVE-2020-9497 CVE-2020-9498 Bug#964195</define-tag>
<define-tag packages>guacamole-server</define-tag>
<define-tag isvulnerable>yes</define-tag>
<define-tag fixed>yes</define-tag>
<define-tag fixed-section>no</define-tag>

#use wml::debian::security

