<define-tag pagetitle>DLA-1407-1 mariadb-10.0</define-tag>
<define-tag report_date>2018-6-29</define-tag>
<define-tag secrefs>CVE-2017-10268 CVE-2017-10378 CVE-2018-2562 CVE-2018-2612 CVE-2018-2622 CVE-2018-2640 CVE-2018-2665 CVE-2018-2668 CVE-2018-2755 CVE-2018-2761 CVE-2018-2766 CVE-2018-2771 CVE-2018-2781 CVE-2018-2782 CVE-2018-2784 CVE-2018-2787 CVE-2018-2813 CVE-2018-2817 CVE-2018-2819</define-tag>
<define-tag packages>mariadb-10.0</define-tag>
<define-tag isvulnerable>yes</define-tag>
<define-tag fixed>yes</define-tag>
<define-tag fixed-section>no</define-tag>

#use wml::debian::security

