<define-tag pagetitle>DLA-1512-1 sympa</define-tag>
<define-tag report_date>2018-9-21</define-tag>
<define-tag secrefs>CVE-2018-1000671 Bug#908165</define-tag>
<define-tag packages>sympa</define-tag>
<define-tag isvulnerable>yes</define-tag>
<define-tag fixed>yes</define-tag>
<define-tag fixed-section>no</define-tag>

#use wml::debian::security

