<define-tag pagetitle>DLA-1583-1 jasper</define-tag>
<define-tag report_date>2018-11-21</define-tag>
<define-tag secrefs>CVE-2015-5203 CVE-2015-5221 CVE-2016-8690 CVE-2017-13748 CVE-2017-14132</define-tag>
<define-tag packages>jasper</define-tag>
<define-tag isvulnerable>yes</define-tag>
<define-tag fixed>yes</define-tag>
<define-tag fixed-section>no</define-tag>

#use wml::debian::security

