<define-tag pagetitle>DLA-1395-1 php-horde-image</define-tag>
<define-tag report_date>2018-6-22</define-tag>
<define-tag secrefs>CVE-2017-9774 CVE-2017-14650 Bug##865505 Bug#876400</define-tag>
<define-tag packages>php-horde-image</define-tag>
<define-tag isvulnerable>yes</define-tag>
<define-tag fixed>yes</define-tag>
<define-tag fixed-section>no</define-tag>

#use wml::debian::security

