<define-tag pagetitle>DSA-4521-1 docker.io</define-tag>
<define-tag report_date>2019-9-09</define-tag>
<define-tag secrefs>CVE-2019-13139 CVE-2019-13509 CVE-2019-14271</define-tag>
<define-tag packages>docker.io</define-tag>
<define-tag isvulnerable>yes</define-tag>
<define-tag fixed>yes</define-tag>
<define-tag fixed-section>no</define-tag>

#use wml::debian::security



</dl>
