<define-tag pagetitle>DSA-4573-1 symfony</define-tag>
<define-tag report_date>2019-11-18</define-tag>
<define-tag secrefs>CVE-2019-18887 CVE-2019-18888 CVE-2019-18889</define-tag>
<define-tag packages>symfony</define-tag>
<define-tag isvulnerable>yes</define-tag>
<define-tag fixed>yes</define-tag>
<define-tag fixed-section>no</define-tag>

#use wml::debian::security



</dl>
