<define-tag pagetitle>DSA-4542-1 jackson-databind</define-tag>
<define-tag report_date>2019-10-06</define-tag>
<define-tag secrefs>CVE-2019-12384 CVE-2019-14439 CVE-2019-14540 CVE-2019-16335 CVE-2019-16942 CVE-2019-16943 Bug#941530 Bug#940498 Bug#933393 Bug#930750</define-tag>
<define-tag packages>jackson-databind</define-tag>
<define-tag isvulnerable>yes</define-tag>
<define-tag fixed>yes</define-tag>
<define-tag fixed-section>no</define-tag>

#use wml::debian::security



</dl>
