<define-tag pagetitle>DLA-1803-1 php5</define-tag>
<define-tag report_date>2019-5-25</define-tag>
<define-tag secrefs>CVE-2019-11034 CVE-2019-11035 CVE-2019-11036</define-tag>
<define-tag packages>php5</define-tag>
<define-tag isvulnerable>yes</define-tag>
<define-tag fixed>yes</define-tag>
<define-tag fixed-section>no</define-tag>

#use wml::debian::security

