<define-tag pagetitle>DLA-1624-1 thunderbird</define-tag>
<define-tag report_date>2019-1-2</define-tag>
<define-tag secrefs>not yet available</define-tag>
<define-tag packages>thunderbird</define-tag>
<define-tag isvulnerable>yes</define-tag>
<define-tag fixed>yes</define-tag>
<define-tag fixed-section>no</define-tag>

#use wml::debian::security

