<define-tag pagetitle>DLA-2003-1 isc-dhcp</define-tag>
<define-tag report_date>2019-11-24</define-tag>
<define-tag secrefs>CVE-2016-2774</define-tag>
<define-tag packages>isc-dhcp</define-tag>
<define-tag isvulnerable>yes</define-tag>
<define-tag fixed>yes</define-tag>
<define-tag fixed-section>no</define-tag>

#use wml::debian::security

