<define-tag pagetitle>DLA-741-1 unzip</define-tag>
<define-tag report_date>2016-12-13</define-tag>
<define-tag secrefs>CVE-2014-9913 CVE-2016-9844 Bug#847485 Bug#847486</define-tag>
<define-tag packages>unzip</define-tag>
<define-tag isvulnerable>yes</define-tag>
<define-tag fixed>yes</define-tag>
<define-tag fixed-section>no</define-tag>

#use wml::debian::security

